Complex Survey Data Analysis: A Tidy Introduction with {srvyr} and {survey} – Statistical Testing
…
as design argument is the second argument, dot notation is needed

Dot notation

Dot notation

Let’s walk through an example using the towny data.

towny

# A tibble: 414 × 25
   name   website status csd_type census_div latitude longitude land_area_km2
   <chr>  <chr>   <chr>  <chr>    <chr>         <dbl>     <dbl>         <dbl>
 1 Addin… https:… lower… township Lennox an…     45       -77.2        1294. 
 2 Adela… https:… lower… township Middlesex      43.0     -81.7         331. 
 3 Adjal… https:… lower… township Simcoe         44.1     -79.9         372. 
 4 Admas… https:… lower… township Renfrew        45.5     -76.9         520. 
 5 Ajax   https:… lower… town     Durham         43.9     -79.0          66.6
 6 Alber… https:… singl… township Rainy Riv…     48.6     -93.5         117. 
 7 Alfre… https:… lower… township Prescott …     45.6     -74.9         392. 
 8 Algon… https:… lower… township Haliburton     45.4     -78.8        1000. 
 9 Alnwi… https:… lower… township Northumbe…     44.1     -78.0         398. 
10 Amara… https:… lower… township Dufferin       44.0     -80.2         265. 
# ℹ 404 more rows
# ℹ 17 more variables: population_1996 <int>, population_2001 <int>,
#   population_2006 <int>, population_2011 <int>, population_2016 <int>,
#   population_2021 <int>, density_1996 <dbl>, density_2001 <dbl>,
#   density_2006 <dbl>, density_2011 <dbl>, density_2016 <dbl>,
#   density_2021 <dbl>, pop_change_1996_2001_pct <dbl>,
#   pop_change_2001_2006_pct <dbl>, pop_change_2006_2011_pct <dbl>, …

Dot notation

Using the towny data, let’s filter to only cities.

filter(towny, csd_type == "city")

# A tibble: 52 × 25
   name   website status csd_type census_div latitude longitude land_area_km2
   <chr>  <chr>   <chr>  <chr>    <chr>         <dbl>     <dbl>         <dbl>
 1 Barrie https:… singl… city     Simcoe         44.4     -79.7          99.0
 2 Belle… https:… singl… city     Hastings       44.2     -77.4         247. 
 3 Bramp… https:… lower… city     Peel           43.7     -79.8         266. 
 4 Brant  https:… singl… city     Brant          43.1     -80.4         818. 
 5 Brant… https:… singl… city     Brant          43.1     -80.3          98.6
 6 Brock… https:… singl… city     Leeds and…     44.6     -75.7          20.9
 7 Burli… https:… lower… city     Halton         43.4     -79.8         186. 
 8 Cambr… https:… lower… city     Waterloo       43.4     -80.3         113. 
 9 Clare… https:… lower… city     Prescott …     45.5     -75.2         297. 
10 Cornw… https:… singl… city     Stormont,…     45.0     -74.7          61.5
# ℹ 42 more rows
# ℹ 17 more variables: population_1996 <int>, population_2001 <int>,
#   population_2006 <int>, population_2011 <int>, population_2016 <int>,
#   population_2021 <int>, density_1996 <dbl>, density_2001 <dbl>,
#   density_2006 <dbl>, density_2011 <dbl>, density_2016 <dbl>,
#   density_2021 <dbl>, pop_change_1996_2001_pct <dbl>,
#   pop_change_2001_2006_pct <dbl>, pop_change_2006_2011_pct <dbl>, …

Dot notation

Using the towny data, let’s filter to only cities.

filter(towny, csd_type == "city")
towny %>% filter(csd_type == "city")

# A tibble: 52 × 25
   name   website status csd_type census_div latitude longitude land_area_km2
   <chr>  <chr>   <chr>  <chr>    <chr>         <dbl>     <dbl>         <dbl>
 1 Barrie https:… singl… city     Simcoe         44.4     -79.7          99.0
 2 Belle… https:… singl… city     Hastings       44.2     -77.4         247. 
 3 Bramp… https:… lower… city     Peel           43.7     -79.8         266. 
 4 Brant  https:… singl… city     Brant          43.1     -80.4         818. 
 5 Brant… https:… singl… city     Brant          43.1     -80.3          98.6
 6 Brock… https:… singl… city     Leeds and…     44.6     -75.7          20.9
 7 Burli… https:… lower… city     Halton         43.4     -79.8         186. 
 8 Cambr… https:… lower… city     Waterloo       43.4     -80.3         113. 
 9 Clare… https:… lower… city     Prescott …     45.5     -75.2         297. 
10 Cornw… https:… singl… city     Stormont,…     45.0     -74.7          61.5
# ℹ 42 more rows
# ℹ 17 more variables: population_1996 <int>, population_2001 <int>,
#   population_2006 <int>, population_2011 <int>, population_2016 <int>,
#   population_2021 <int>, density_1996 <dbl>, density_2001 <dbl>,
#   density_2006 <dbl>, density_2011 <dbl>, density_2016 <dbl>,
#   density_2021 <dbl>, pop_change_1996_2001_pct <dbl>,
#   pop_change_2001_2006_pct <dbl>, pop_change_2006_2011_pct <dbl>, …

Dot notation

Using the towny data, let’s filter to only cities.

filter(towny, csd_type == "city")
towny %>% filter(csd_type == "city")
towny %>% filter(., csd_type == "city")

# A tibble: 52 × 25
   name   website status csd_type census_div latitude longitude land_area_km2
   <chr>  <chr>   <chr>  <chr>    <chr>         <dbl>     <dbl>         <dbl>
 1 Barrie https:… singl… city     Simcoe         44.4     -79.7          99.0
 2 Belle… https:… singl… city     Hastings       44.2     -77.4         247. 
 3 Bramp… https:… lower… city     Peel           43.7     -79.8         266. 
 4 Brant  https:… singl… city     Brant          43.1     -80.4         818. 
 5 Brant… https:… singl… city     Brant          43.1     -80.3          98.6
 6 Brock… https:… singl… city     Leeds and…     44.6     -75.7          20.9
 7 Burli… https:… lower… city     Halton         43.4     -79.8         186. 
 8 Cambr… https:… lower… city     Waterloo       43.4     -80.3         113. 
 9 Clare… https:… lower… city     Prescott …     45.5     -75.2         297. 
10 Cornw… https:… singl… city     Stormont,…     45.0     -74.7          61.5
# ℹ 42 more rows
# ℹ 17 more variables: population_1996 <int>, population_2001 <int>,
#   population_2006 <int>, population_2011 <int>, population_2016 <int>,
#   population_2021 <int>, density_1996 <dbl>, density_2001 <dbl>,
#   density_2006 <dbl>, density_2011 <dbl>, density_2016 <dbl>,
#   density_2021 <dbl>, pop_change_1996_2001_pct <dbl>,
#   pop_change_2001_2006_pct <dbl>, pop_change_2006_2011_pct <dbl>, …

Dot notation

Using the towny data, let’s filter to only cities.

filter(towny, csd_type == "city")
towny %>% filter(csd_type == "city")
towny %>% filter(., csd_type == "city")
towny %>% filter(.data = ., csd_type == "city")

# A tibble: 52 × 25
   name   website status csd_type census_div latitude longitude land_area_km2
   <chr>  <chr>   <chr>  <chr>    <chr>         <dbl>     <dbl>         <dbl>
 1 Barrie https:… singl… city     Simcoe         44.4     -79.7          99.0
 2 Belle… https:… singl… city     Hastings       44.2     -77.4         247. 
 3 Bramp… https:… lower… city     Peel           43.7     -79.8         266. 
 4 Brant  https:… singl… city     Brant          43.1     -80.4         818. 
 5 Brant… https:… singl… city     Brant          43.1     -80.3          98.6
 6 Brock… https:… singl… city     Leeds and…     44.6     -75.7          20.9
 7 Burli… https:… lower… city     Halton         43.4     -79.8         186. 
 8 Cambr… https:… lower… city     Waterloo       43.4     -80.3         113. 
 9 Clare… https:… lower… city     Prescott …     45.5     -75.2         297. 
10 Cornw… https:… singl… city     Stormont,…     45.0     -74.7          61.5
# ℹ 42 more rows
# ℹ 17 more variables: population_1996 <int>, population_2001 <int>,
#   population_2006 <int>, population_2011 <int>, population_2016 <int>,
#   population_2021 <int>, density_1996 <dbl>, density_2001 <dbl>,
#   density_2006 <dbl>, density_2011 <dbl>, density_2016 <dbl>,
#   density_2021 <dbl>, pop_change_1996_2001_pct <dbl>,
#   pop_change_2001_2006_pct <dbl>, pop_change_2006_2011_pct <dbl>, …
…
