Complex Survey Data Analysis: A Tidy Introduction with {srvyr} and {survey} – Getting Started
…
# A tibble: 1 × 10
  TOTSQFT_EN TOTSQFT_EN_se TOTHSQFT TOTHSQFT_se TOTCSQFT TOTCSQFT_se TOTALBTU
       <dbl>         <dbl>    <dbl>       <dbl>    <dbl>       <dbl>    <dbl>
1      1819.          6.62    1614.        7.19    1335.        6.72   76753.
# ℹ 3 more variables: TOTALBTU_se <dbl>, TOTALDOL <dbl>, TOTALDOL_se <dbl>

Using {dplyr} functions

Tibble:

towny %>%
  filter(csd_type == "township") %>%
  select(csd_type, name)

# A tibble: 195 × 2
   csd_type name                  
   <chr>    <chr>                 
 1 township Addington Highlands   
 2 township Adelaide Metcalfe     
 3 township Adjala-Tosorontio     
 4 township Admaston/Bromley      
 5 township Alberton              
 6 township Alfred and Plantagenet
 7 township Algonquin Highlands   
 8 township Alnwick/Haldimand     
 9 township Amaranth              
10 township The Archipelago       
# ℹ 185 more rows
…
