03 - Descriptive Analysis – Complex Survey Data Analysis: A Tidy Introduction with {srvyr} and {survey}
…
Advanced bonus exercise What percentage of people used air-conditioning (A/C) in each state according to the RECS data? Extra bonus: Make a plot or map of this data by state - the usmap package may be useful.

Show code

ac_by_state <- recs_des %>%
  group_by(state_postal) %>%
  summarize(
    PctAC = survey_mean(ACUsed * 100)
  )

ac_by_state

# A tibble: 51 × 3
   state_postal PctAC PctAC_se
   <fct>        <dbl>    <dbl>
 1 AL           93.5     1.52 
 2 AK            6.94    1.51 
 3 AZ           94.2     1.31 
 4 AR           93.4     1.86 
 5 CA           72.4     1.41 
 6 CO           81.7     2.15 
 7 CT           89.6     1.95 
 8 DE           97.0     1.51 
 9 DC           93.3     1.82 
10 FL           95.8     0.785
# ℹ 41 more rows
…
Advanced bonus exercise What is the average money spent on energy per square foot by state? Extra bonus: Make a plot or map of this data by state

Show code

energy_spend_by_state <- recs_des %>%
  group_by(state_postal) %>%
  summarize(
    EnergyCost = survey_mean(TOTALDOL / TOTSQFT_EN)
  )

energy_spend_by_state

# A tibble: 51 × 3
   state_postal EnergyCost EnergyCost_se
   <fct>             <dbl>         <dbl>
 1 AL                1.42         0.0522
 2 AK                1.98         0.0720
 3 AZ                1.36         0.0326
 4 AR                1.35         0.0529
 5 CA                1.23         0.0202
 6 CO                0.801        0.0274
 7 CT                1.70         0.0606
 8 DE                1.11         0.0481
 9 DC                1.14         0.0332
10 FL                1.15         0.0246
# ℹ 41 more rows
…
